<svg xmlns="http://www.w3.org/2000/svg" width="12.931" height="14.848" viewBox="0 0 12.931 14.848">
  <path id="Icon" d="M1514.988,1265.1a.6.6,0,0,0-.611.578v2.236h-1.286v-2.236a.612.612,0,0,0-1.223,0v2.236h-1.312V1265.7a.612.612,0,0,0-1.223,0v2.713a2.194,2.194,0,0,0,1.923,2.124v8.255a1.224,1.224,0,0,0,2.445,0v-8.258a2.193,2.193,0,0,0,1.9-2.121v-2.732A.6.6,0,0,0,1514.988,1265.1Zm6.1.264a14.294,14.294,0,0,0-3.706,8.057.655.655,0,0,0,.669.663l1.771.017v4.69a1.224,1.224,0,0,0,2.445,0v-13.019A.673.673,0,0,0,1521.086,1265.368Z" transform="translate(-1509.334 -1265.104)" fill="#fff"/>
</svg>
