<svg xmlns="http://www.w3.org/2000/svg" width="17.024" height="21" viewBox="0 0 17.024 21">
  <path id="Icon" d="M1660.579,1217.846h0m0,0h-4.256a2.128,2.128,0,1,0,4.256,0M1658.451,1199a1.6,1.6,0,0,0-1.6,1.615v.732c-3.054.733-4.788,3.489-4.788,6.806v5.384l-2.128,2.154v1.076h17.024v-1.076l-2.128-2.154v-5.384c0-3.306-1.745-6.073-4.788-6.806v-.732a1.6,1.6,0,0,0-1.6-1.615" transform="translate(-1649.939 -1199)" fill="#fff"/>
</svg>
